<svg width="95" height="23" viewBox="0 0 95 23" fill="none" xmlns="http://www.w3.org/2000/svg">
<path d="M16.197 13.735C16.197 14.2183 16.1487 14.8177 16.052 15.533H4.191C4.771 17.7757 6.308 18.897 8.802 18.897C10.6387 18.897 12.34 18.3653 13.906 17.302L15.53 20.173C13.5193 21.623 11.2187 22.348 8.628 22.348C5.86333 22.348 3.73667 21.5457 2.248 19.941C0.778667 18.3557 0.0440001 16.403 0.0440001 14.083C0.0440001 11.6663 0.807667 9.68467 2.335 8.138C3.86233 6.572 5.844 5.789 8.28 5.789C10.5807 5.789 12.4753 6.50433 13.964 7.935C15.4527 9.36567 16.197 11.299 16.197 13.735ZM8.28 9.182C7.25533 9.182 6.37567 9.48167 5.641 10.081C4.92567 10.661 4.44233 11.4633 4.191 12.488H12.224C12.0307 11.4633 11.586 10.661 10.89 10.081C10.194 9.48167 9.324 9.182 8.28 9.182ZM29.3333 22.319C26.2013 22.319 23.5817 21.304 21.4743 19.274C19.367 17.2247 18.3133 14.5857 18.3133 11.357C18.3133 8.109 19.3863 5.441 21.5323 3.353C23.6977 1.24567 26.3173 0.191999 29.3913 0.191999C31.3053 0.191999 33.084 0.597999 34.7273 1.41C36.3707 2.20267 37.666 3.27567 38.6133 4.629L35.7423 7.442C34.0603 5.37333 32.0207 4.339 29.6233 4.339C27.69 4.339 26.066 5.006 24.7513 6.34C23.4367 7.65467 22.7793 9.327 22.7793 11.357C22.7793 13.329 23.427 14.9627 24.7223 16.258C26.0177 17.5533 27.6417 18.201 29.5943 18.201C32.0883 18.201 34.1667 17.157 35.8293 15.069L38.7873 17.766C37.782 19.1387 36.4383 20.2407 34.7563 21.072C33.0937 21.9033 31.286 22.319 29.3333 22.319ZM53.0492 8.08V6.195H56.9352V22H53.0492V20.173C51.6959 21.6423 50.0139 22.377 48.0032 22.377C45.7219 22.377 43.8465 21.5843 42.3772 19.999C40.9079 18.4137 40.1732 16.4223 40.1732 14.025C40.1732 11.647 40.9175 9.68467 42.4062 8.138C43.8949 6.572 45.7605 5.789 48.0032 5.789C49.9752 5.789 51.6572 6.55267 53.0492 8.08ZM53.1072 14.083C53.1072 12.8457 52.6819 11.7727 51.8312 10.864C50.9999 9.97467 49.9462 9.53 48.6702 9.53C47.3749 9.53 46.3115 9.97467 45.4802 10.864C44.6682 11.7533 44.2622 12.8263 44.2622 14.083C44.2622 15.359 44.6779 16.4417 45.5092 17.331C46.3405 18.2203 47.3942 18.665 48.6702 18.665C49.9462 18.665 50.9999 18.2203 51.8312 17.331C52.6819 16.4223 53.1072 15.3397 53.1072 14.083ZM64.7009 22H60.6119V6.195H64.5269V8.312C65.4742 6.61067 66.9242 5.76 68.8769 5.76C69.5149 5.76 70.1529 5.876 70.7909 6.108L70.4429 10.023C69.7469 9.81033 69.1185 9.704 68.5579 9.704C67.3592 9.704 66.4119 10.11 65.7159 10.922C65.0392 11.7147 64.7009 12.9037 64.7009 14.489V22ZM87.6208 13.735C87.6208 14.2183 87.5725 14.8177 87.4758 15.533H75.6148C76.1948 17.7757 77.7318 18.897 80.2258 18.897C82.0625 18.897 83.7638 18.3653 85.3298 17.302L86.9538 20.173C84.9432 21.623 82.6425 22.348 80.0518 22.348C77.2872 22.348 75.1605 21.5457 73.6718 19.941C72.2025 18.3557 71.4678 16.403 71.4678 14.083C71.4678 11.6663 72.2315 9.68467 73.7588 8.138C75.2862 6.572 77.2678 5.789 79.7038 5.789C82.0045 5.789 83.8992 6.50433 85.3878 7.935C86.8765 9.36567 87.6208 11.299 87.6208 13.735ZM79.7038 9.182C78.6792 9.182 77.7995 9.48167 77.0648 10.081C76.3495 10.661 75.8662 11.4633 75.6148 12.488H83.6478C83.4545 11.4633 83.0098 10.661 82.3138 10.081C81.6178 9.48167 80.7478 9.182 79.7038 9.182ZM92.2021 22.464C91.5255 22.464 90.9551 22.2417 90.4911 21.797C90.0271 21.333 89.7951 20.7627 89.7951 20.086C89.7951 19.4287 90.0271 18.8777 90.4911 18.433C90.9551 17.9883 91.5255 17.766 92.2021 17.766C92.8401 17.766 93.3815 17.9883 93.8261 18.433C94.2901 18.8777 94.5221 19.4287 94.5221 20.086C94.5221 20.7627 94.2901 21.333 93.8261 21.797C93.3815 22.2417 92.8401 22.464 92.2021 22.464Z" fill="url(#paint0_linear)"/>
<defs>
<linearGradient id="paint0_linear" x1="-45.3079" y1="14.6915" x2="-8.24673" y2="89.586" gradientUnits="userSpaceOnUse">
<stop stop-color="#FF5F6D"/>
<stop offset="1" stop-color="#FFC371"/>
</linearGradient>
</defs>
</svg>
